%YAML 1.1
%TAG !u! tag:unity3d.com,2011:
--- !u!114 &11400000
MonoBehaviour:
  m_ObjectHideFlags: 0
  m_CorrespondingSourceObject: {fileID: 0}
  m_PrefabInstance: {fileID: 0}
  m_PrefabAsset: {fileID: 0}
  m_GameObject: {fileID: 0}
  m_Enabled: 1
  m_EditorHideFlags: 0
  m_Script: {fileID: 11500000, guid: 4df84484a300347a390a93e81aab3265, type: 3}
  m_Name: CardType2
  m_EditorClassIdentifier: 
  objectName: Dog
  description: Its a yellow Cat
  art: {fileID: 0}
  cardNo: 2
